^E:\SPRINGSUMMER2018\HOMEWORK_2\TYPESOFBUGS\TYPESOFBUGS\CALCULATE.CPP|E:\SPRINGSUMMER2018\HOMEWORK_2\TYPESOFBUGS\TYPESOFBUGS\TYPESOFBUGS.CPP
E:\SPRINGSUMMER2018\HOMEWORK_2\TYPESOFBUGS\TYPESOFBUGS\DEBUG\VC141.PDB
E:\SPRINGSUMMER2018\HOMEWORK_2\TYPESOFBUGS\TYPESOFBUGS\DEBUG\VC141.IDB
E:\SPRINGSUMMER2018\HOMEWORK_2\TYPESOFBUGS\TYPESOFBUGS\DEBUG\CALCULATE.OBJ
E:\SPRINGSUMMER2018\HOMEWORK_2\TYPESOFBUGS\TYPESOFBUGS\DEBUG\TYPESOFBUGS.OBJ
^E:\SPRINGSUMMER2018\HOMEWORK_2\TYPESOFBUGS\TYPESOFBUGS\CALCULATE.CPP
E:\SPRINGSUMMER2018\HOMEWORK_2\TYPESOFBUGS\TYPESOFBUGS\DEBUG\VC141.PDB
^E:\SPRINGSUMMER2018\HOMEWORK_2\TYPESOFBUGS\TYPESOFBUGS\TYPESOFBUGS.CPP
E:\SPRINGSUMMER2018\HOMEWORK_2\TYPESOFBUGS\TYPESOFBUGS\DEBUG\VC141.PDB
E:\SPRINGSUMMER2018\HOMEWORK_2\TYPESOFBUGS\TYPESOFBUGS\DEBUG\VC141.IDB
E:\SPRINGSUMMER2018\HOMEWORK_2\TYPESOFBUGS\TYPESOFBUGS\DEBUG\TYPESOFBUGS.OBJ
