^E:\WORKSPACE - VISUAL STUDIO\LEVE1_EXERCISE\MYSTATICLIB\MYSTATICLIB.CPP
E:\WORKSPACE - VISUAL STUDIO\LEVE1_EXERCISE\MYSTATICLIB\RELEASE\MYSTATICLIB.PDB
E:\WORKSPACE - VISUAL STUDIO\LEVE1_EXERCISE\MYSTATICLIB\RELEASE\MYSTATICLIB.OBJ
