^E:\SIEMENS IS - SPRING SCHOOL\HW_2_REPO\LEVE1_EXERCISE\MYSTATICLIB\DEBUG\MYSTATICLIB.OBJ
C:\WINDOWS\GLOBALIZATION\SORTING\SORTDEFAULT.NLS
E:\SIEMENS IS - SPRING SCHOOL\HW_2_REPO\LEVE1_EXERCISE\MYSTATICLIB\DEBUG\MYSTATICLIB.OBJ
C:\WINDOWS\SYSTEM32\TZRES.DLL
